sim/ijtag_sim.vcd
$date
	Tue Apr 14 11:40:03 2026
$end
$version
	Icarus Verilog
$end
$timescale
	1ps
$end
$scope module tb_ieee1687_network $end
$var wire 1 ! tdo $end
$var wire 8 " soc_dout [7:0] $end
$var reg 1 # ext_reset $end
$var reg 8 $ soc_addr [7:0] $end
$var reg 8 % soc_bm [7:0] $end
$var reg 1 & soc_clk $end
$var reg 8 ' soc_din [7:0] $end
$var reg 1 ( soc_men $end
$var reg 1 ) soc_ren $end
$var reg 1 * soc_wen $end
$var reg 1 + tck $end
$var reg 1 , tdi $end
$var reg 1 - tms $end
$scope module dut $end
$var wire 1 # ext_reset $end
$var wire 8 . soc_addr [7:0] $end
$var wire 8 / soc_bm [7:0] $end
$var wire 1 & soc_clk $end
$var wire 8 0 soc_din [7:0] $end
$var wire 1 ( soc_men $end
$var wire 1 ) soc_ren $end
$var wire 1 * soc_wen $end
$var wire 1 + tck $end
$var wire 1 , tdi $end
$var wire 1 - tms $end
$var wire 1 1 ue $end
$var wire 1 2 trst_n $end
$var wire 1 3 tdo_ir $end
$var wire 1 ! tdo $end
$var wire 1 4 swir $end
$var wire 1 5 swdr $end
$var wire 8 6 soc_dout [7:0] $end
$var wire 1 7 se $end
$var wire 1 8 node_so $end
$var wire 1 9 is_shift_ir $end
$var wire 4 : ir_reg [3:0] $end
$var wire 1 ; ijtag_sel $end
$var wire 1 < ce $end
$scope module mem_node_inst $end
$var wire 1 , si $end
$var wire 8 = soc_addr [7:0] $end
$var wire 8 > soc_bm [7:0] $end
$var wire 1 & soc_clk $end
$var wire 8 ? soc_din [7:0] $end
$var wire 1 ( soc_men $end
$var wire 1 ) soc_ren $end
$var wire 1 * soc_wen $end
$var wire 1 + tck $end
$var wire 1 @ wrapper_wso $end
$var wire 1 1 ue $end
$var wire 1 2 trst_n $end
$var wire 1 4 tap_selectwir $end
$var wire 1 5 tap_selectwdr $end
$var wire 8 A soc_dout [7:0] $end
$var wire 1 8 so $end
$var wire 1 ; sel $end
$var wire 1 7 se $end
$var wire 1 B node_to_sel $end
$var wire 1 C mbist_start $end
$var wire 1 D mbist_fail $end
$var wire 1 E mbist_done $end
$var wire 1 F m_wen $end
$var wire 1 G m_ren $end
$var wire 1 H m_men $end
$var wire 8 I m_din [7:0] $end
$var wire 1 J m_clk $end
$var wire 8 K m_bm [7:0] $end
$var wire 8 L m_addr [7:0] $end
$var wire 1 < ce $end
$var wire 1 M A_WEN $end
$var wire 1 N A_REN $end
$var wire 1 O A_MEN $end
$var wire 8 P A_DOUT [7:0] $end
$var wire 8 Q A_DIN [7:0] $end
$var wire 1 R A_CLK $end
$var wire 8 S A_BM [7:0] $end
$var wire 1 T A_BIST_EN $end
$var wire 8 U A_ADDR [7:0] $end
$scope module i_ram $end
$var wire 1 V A_DLY $end
$var wire 1 M A_WEN $end
$var wire 1 N A_REN $end
$var wire 1 O A_MEN $end
$var wire 8 W A_DOUT [7:0] $end
$var wire 8 X A_DIN [7:0] $end
$var wire 1 R A_CLK $end
$var wire 8 Y A_BM [7:0] $end
$var wire 1 F A_BIST_WEN $end
$var wire 1 G A_BIST_REN $end
$var wire 1 H A_BIST_MEN $end
$var wire 1 T A_BIST_EN $end
$var wire 8 Z A_BIST_DIN [7:0] $end
$var wire 1 J A_BIST_CLK $end
$var wire 8 [ A_BIST_BM [7:0] $end
$var wire 8 \ A_BIST_ADDR [7:0] $end
$var wire 8 ] A_ADDR [7:0] $end
$scope module i_SRAM_1P_behavioral_bm_bist $end
$var wire 1 V A_DLY $end
$var wire 1 ^ WEN_MUX $end
$var wire 1 _ REN_MUX $end
$var wire 1 ` MEN_MUX $end
$var wire 8 a DIN_MUX [7:0] $end
$var wire 1 b CLK_MUX $end
$var wire 8 c BM_MUX [7:0] $end
$var wire 1 M A_WEN $end
$var wire 1 N A_REN $end
$var wire 1 O A_MEN $end
$var wire 8 d A_DOUT [7:0] $end
$var wire 8 e A_DIN [7:0] $end
$var wire 1 R A_CLK $end
$var wire 8 f A_BM [7:0] $end
$var wire 1 F A_BIST_WEN $end
$var wire 1 G A_BIST_REN $end
$var wire 1 H A_BIST_MEN $end
$var wire 1 T A_BIST_EN $end
$var wire 8 g A_BIST_DIN [7:0] $end
$var wire 1 J A_BIST_CLK $end
$var wire 8 h A_BIST_BM [7:0] $end
$var wire 8 i A_BIST_ADDR [7:0] $end
$var wire 8 j A_ADDR [7:0] $end
$var wire 8 k ADDR_MUX [7:0] $end
$var reg 8 l dr_r [7:0] $end
$upscope $end
$upscope $end
$scope module mbist_i $end
$var wire 8 m A_DOUT [7:0] $end
$var wire 1 & clk $end
$var wire 1 C start $end
$var wire 1 2 rst_n $end
$var reg 8 n A_BIST_ADDR [7:0] $end
$var reg 8 o A_BIST_BM [7:0] $end
$var reg 1 J A_BIST_CLK $end
$var reg 8 p A_BIST_DIN [7:0] $end
$var reg 1 q A_BIST_EN $end
$var reg 1 H A_BIST_MEN $end
$var reg 1 G A_BIST_REN $end
$var reg 1 F A_BIST_WEN $end
$var reg 9 r addr_cnt [8:0] $end
$var reg 1 E done $end
$var reg 1 D fail $end
$var reg 3 s state [2:0] $end
$var reg 2 t sub_step [1:0] $end
$upscope $end
$scope module sib_i $end
$var wire 1 u reset $end
$var wire 1 , si $end
$var wire 1 + tck $end
$var wire 1 B to_sel $end
$var wire 1 1 ue $end
$var wire 1 8 so $end
$var wire 1 ; sel $end
$var wire 1 7 se $end
$var wire 1 @ from_so $end
$var wire 1 < ce $end
$var reg 1 v shift_stage $end
$var reg 1 w update_stage $end
$upscope $end
$scope module wrapper_i $end
$var wire 8 x A_BIST_ADDR [7:0] $end
$var wire 8 y A_BIST_BM [7:0] $end
$var wire 1 z A_BIST_CLK $end
$var wire 8 { A_BIST_DIN [7:0] $end
$var wire 1 | A_BIST_MEN $end
$var wire 1 } A_BIST_REN $end
$var wire 1 ~ A_BIST_WEN $end
$var wire 8 !" A_DOUT [7:0] $end
$var wire 8 "" m_bist_addr [7:0] $end
$var wire 8 #" m_bist_bm [7:0] $end
$var wire 1 J m_bist_clk $end
$var wire 8 $" m_bist_din [7:0] $end
$var wire 1 H m_bist_men $end
$var wire 1 G m_bist_ren $end
$var wire 1 F m_bist_wen $end
$var wire 1 E mbist_done $end
$var wire 1 D mbist_fail $end
$var wire 8 %" soc_addr [7:0] $end
$var wire 8 &" soc_bm [7:0] $end
$var wire 1 & soc_clk $end
$var wire 8 '" soc_din [7:0] $end
$var wire 8 (" soc_dout [7:0] $end
$var wire 1 ( soc_men $end
$var wire 1 ) soc_ren $end
$var wire 1 * soc_wen $end
$var wire 1 B to_sel $end
$var wire 1 + wrck $end
$var wire 1 , wsi $end
$var wire 1 @ wso $end
$var wire 1 2 wrstn $end
$var wire 1 1 updatewir $end
$var wire 1 1 updatewdr $end
$var wire 1 7 shiftwir $end
$var wire 1 7 shiftwdr $end
$var wire 1 4 selectwir $end
$var wire 1 5 selectwdr $end
$var wire 1 C mbist_start $end
$var wire 1 < capturewir $end
$var wire 1 < capturewdr $end
$var wire 1 )" bist_status_to_capture $end
$var wire 1 M A_WEN $end
$var wire 1 N A_REN $end
$var wire 1 O A_MEN $end
$var wire 8 *" A_DIN [7:0] $end
$var wire 1 R A_CLK $end
$var wire 8 +" A_BM [7:0] $end
$var wire 1 T A_BIST_EN $end
$var wire 8 ," A_ADDR [7:0] $end
$var reg 1 -" bypass_reg $end
$var reg 27 ." wdr [26:0] $end
$var reg 8 /" wdr_addr_cell [7:0] $end
$var reg 8 0" wdr_bm_cell [7:0] $end
$var reg 8 1" wdr_din_cell [7:0] $end
$var reg 1 2" wdr_men_cell $end
$var reg 1 3" wdr_ren_cell $end
$var reg 27 4" wdr_shift [26:0] $end
$var reg 1 5" wdr_wen_cell $end
$var reg 3 6" wir [2:0] $end
$var reg 3 7" wir_shift [2:0] $end
$var reg 1 @ wso_int $end
$upscope $end
$upscope $end
$scope module tap_inst $end
$var wire 1 # ext_reset $end
$var wire 1 ; ijtag_sel $end
$var wire 1 8" node_so $end
$var wire 1 + tck $end
$var wire 1 , tdi $end
$var wire 1 - tms $end
$var wire 1 2 trst_n_out $end
$var wire 1 1 ue $end
$var wire 1 4 selectwir $end
$var wire 1 5 selectwdr $end
$var wire 1 7 se $end
$var wire 1 < ce $end
$var reg 4 9" ir_reg [3:0] $end
$var reg 4 :" state [3:0] $end
$var reg 1 3 tdo $end
$upscope $end
$upscope $end
$scope task reset_tap $end
$upscope $end
$scope task shift_dr $end
$scope begin $ivl_for_loop1 $end
$upscope $end
$upscope $end
$scope task shift_dr_and_read_tdo $end
$scope begin $ivl_for_loop2 $end
$upscope $end
$upscope $end
$scope task shift_ir $end
$scope begin $ivl_for_loop0 $end
$upscope $end
$upscope $end
$upscope $end
$enddefinitions $end
#0
$dumpvars
b0 :"
b1111 9"
z8"
b0 7"
b0 6"
05"
b0 4"
03"
02"
b0 1"
b11111111 0"
b0 /"
b0 ."
0-"
bx ,"
bx +"
bx *"
0)"
bx ("
bx '"
bx &"
bx %"
b0 $"
b11111111 #"
b0 ""
bx !"
0~
0}
0|
b0 {
0z
b11111111 y
b0 x
0w
0v
1u
b0 t
b0 s
b0 r
0q
b0 p
b11111111 o
b0 n
bz m
bx l
bx k
bx j
b0 i
b11111111 h
b0 g
bx f
bx e
bx d
bx c
0b
bx a
0`
0_
0^
bx ]
b0 \
b11111111 [
b0 Z
bx Y
bx X
bx W
0V
bx U
0T
bx S
0R
bx Q
bx P
0O
0N
0M
b0 L
b11111111 K
0J
b0 I
0H
0G
0F
0E
0D
0C
0B
bx A
0@
bx ?
bx >
bx =
0<
0;
b1111 :
09
08
07
bx 6
05
04
03
02
01
bx 0
bx /
bx .
1-
0,
0+
0*
0)
0(
bx '
0&
bx %
bx $
0#
bx "
0!
$end
#5000
1b
1z
1J
1R
1&
#10000
0b
0z
0J
0R
0&
1+
#15000
1b
1z
1J
1R
1&
#20000
0b
0z
0J
0R
0&
0+
#25000
1b
1z
1J
1R
1&
#30000
0b
0z
0J
0R
0&
1+
#35000
1b
1z
1J
1R
1&
#40000
0b
0z
0J
0R
0&
0+
#45000
1b
1z
1J
1R
1&
#50000
0b
0z
0J
0R
0&
1+
#55000
1b
1z
1J
1R
1&
#60000
0b
0z
0J
0R
0&
0+
#65000
1b
1z
1J
1R
1&
#70000
0b
0z
0J
0R
0&
1+
#75000
1b
1z
1J
1R
1&
#80000
0b
0z
0J
0R
0&
0+
#85000
1b
1z
1J
1R
1&
#90000
0b
0z
0J
0R
0&
1+
#95000
1b
1z
1J
1R
1&
#100000
0b
0z
0J
0R
0u
0&
0+
12
1#
#105000
1b
1z
1J
1R
1&
#110000
0b
0z
0J
0R
0&
1+
#115000
1b
1z
1J
1R
1&
#120000
0b
0z
0J
0R
0&
0+
#125000
1b
1z
1J
1R
1&
#130000
0b
0z
0J
0R
0&
1+
#135000
1b
1z
1J
1R
1&
#140000
0b
0z
0J
0R
0&
0+
#145000
1b
1z
1J
1R
1&
#150000
0b
0z
0J
0R
0&
1+
#155000
1b
1z
1J
1R
1&
#160000
0b
0z
0J
0R
0&
0+
#165000
1b
1z
1J
1R
1&
#170000
0b
0z
0J
0R
0&
1+
#175000
1b
1z
1J
1R
1&
#180000
0b
0z
0J
0R
0&
0+
#185000
1b
1z
1J
1R
1&
#190000
0b
0z
0J
0R
0&
1+
#195000
1b
1z
1J
1R
1&
#200000
0b
0z
0J
0R
0&
0+
#205000
1b
1z
1J
1R
1&
#210000
b1 :"
0b
0z
0J
0R
0-
0&
1+
#215000
1b
1z
1J
1R
1&
#220000
0b
0z
0J
0R
0&
0+
#225000
1b
1z
1J
1R
1&
#230000
b10 :"
0b
0z
0J
0R
1-
0&
1+
#235000
1b
1z
1J
1R
1&
#240000
0b
0z
0J
0R
0&
0+
#245000
1b
1z
1J
1R
1&
#250000
b1001 :"
0b
0z
0J
0R
0&
1+
#255000
1b
1z
1J
1R
1&
#260000
0b
0z
0J
0R
0&
0+
#265000
1b
1z
1J
1R
1&
#270000
b1010 :"
0b
0z
0J
0R
0-
0&
1+
#275000
1b
1z
1J
1R
1&
#280000
0b
0z
0J
0R
0&
0+
#285000
1b
1z
1J
1R
1&
#290000
1!
13
19
b1011 :"
0b
0z
0J
0R
0&
1+
#295000
1b
1z
1J
1R
1&
#300000
0b
0z
0J
0R
0&
0+
#305000
1b
1z
1J
1R
1&
#310000
0b
0z
0J
0R
1,
0&
1+
#315000
1b
1z
1J
1R
1&
#320000
0b
0z
0J
0R
0&
0+
#325000
1b
1z
1J
1R
1&
#330000
b111 :
b111 9"
0b
0z
0J
0R
0,
0&
1+
#335000
1b
1z
1J
1R
1&
#340000
0b
0z
0J
0R
0&
0+
#345000
1b
1z
1J
1R
1&
#350000
b11 :
b11 9"
0b
0z
0J
0R
0&
1+
#355000
1b
1z
1J
1R
1&
#360000
0b
0z
0J
0R
0&
0+
#365000
1b
1z
1J
1R
1&
#370000
1;
03
0!
15
b1001 :
b1001 9"
09
b1100 :"
0b
0z
0J
0R
1-
1,
0&
1+
#375000
1b
1z
1J
1R
1&
#380000
0b
0z
0J
0R
0&
0+
#385000
1b
1z
1J
1R
1&
#390000
b0 :"
0b
0z
0J
0R
0&
1+
#395000
1b
1z
1J
1R
1&
#400000
0b
0z
0J
0R
0&
0+
#405000
1b
1z
1J
1R
1&
#410000
b1 :"
0b
0z
0J
0R
0-
0&
1+
#415000
1b
1z
1J
1R
1&
#420000
0b
0z
0J
0R
0&
0+
#425000
1b
1z
1J
1R
1&
#430000
b10 :"
0b
0z
0J
0R
1-
0&
1+
#435000
1b
1z
1J
1R
1&
#440000
0b
0z
0J
0R
0&
0+
#445000
1b
1z
1J
1R
1&
#450000
1<
b11 :"
0b
0z
0J
0R
0-
0&
1+
#455000
1b
1z
1J
1R
1&
#460000
0b
0z
0J
0R
0&
0+
#465000
1b
1z
1J
1R
1&
#470000
z3
17
0<
b100 :"
0b
0z
0J
0R
0&
1+
#475000
1b
1z
1J
1R
1&
#480000
0b
0z
0J
0R
0&
0+
#485000
1b
1z
1J
1R
1&
#490000
1!
18
03
1v
07
b101 :"
0b
0z
0J
0R
1-
0&
1+
#495000
1b
1z
1J
1R
1&
#500000
0b
0z
0J
0R
0&
0+
#505000
1b
1z
1J
1R
1&
#510000
11
b1000 :"
0b
0z
0J
0R
0&
1+
#515000
1b
1z
1J
1R
1&
#520000
0b
0z
0J
0R
0&
0+
#525000
1b
1z
1J
1R
1&
#530000
0!
08
1B
1w
01
b1 :"
0b
0z
0J
0R
0-
0&
1+
#535000
1b
1z
1J
1R
1&
#540000
0b
0z
0J
0R
0&
0+
#545000
1b
1z
1J
1R
1&
#550000
b10 :"
0b
0z
0J
0R
1-
0&
1+
#555000
1b
1z
1J
1R
1&
#560000
0b
0z
0J
0R
0&
0+
#565000
1b
1z
1J
1R
1&
#570000
b1001 :"
0b
0z
0J
0R
0&
1+
#575000
1b
1z
1J
1R
1&
#580000
0b
0z
0J
0R
0&
0+
#585000
1b
1z
1J
1R
1&
#590000
b1010 :"
0b
0z
0J
0R
0-
0&
1+
#595000
1b
1z
1J
1R
1&
#600000
0b
0z
0J
0R
0&
0+
#605000
1b
1z
1J
1R
1&
#610000
1!
13
19
b1011 :"
0b
0z
0J
0R
0&
1+
#615000
1b
1z
1J
1R
1&
#620000
0b
0z
0J
0R
0&
0+
#625000
1b
1z
1J
1R
1&
#630000
0!
03
0;
05
b100 :
b100 9"
0b
0z
0J
0R
0,
0&
1+
#635000
1b
1z
1J
1R
1&
#640000
0b
0z
0J
0R
0&
0+
#645000
1b
1z
1J
1R
1&
#650000
b10 :
b10 9"
0b
0z
0J
0R
0&
1+
#655000
1b
1z
1J
1R
1&
#660000
0b
0z
0J
0R
0&
0+
#665000
1b
1z
1J
1R
1&
#670000
1!
13
b1 :
b1 9"
0b
0z
0J
0R
0&
1+
#675000
1b
1z
1J
1R
1&
#680000
0b
0z
0J
0R
0&
0+
#685000
1b
1z
1J
1R
1&
#690000
1;
03
0!
14
b1000 :
b1000 9"
09
b1100 :"
0b
0z
0J
0R
1-
1,
0&
1+
#695000
1b
1z
1J
1R
1&
#700000
0b
0z
0J
0R
0&
0+
#705000
1b
1z
1J
1R
1&
#710000
b0 :"
0b
0z
0J
0R
0&
1+
#715000
1b
1z
1J
1R
1&
#720000
0b
0z
0J
0R
0&
0+
#725000
1b
1z
1J
1R
1&
#730000
b1 :"
0b
0z
0J
0R
0-
0&
1+
#735000
1b
1z
1J
1R
1&
#740000
0b
0z
0J
0R
0&
0+
#745000
1b
1z
1J
1R
1&
#750000
b10 :"
0b
0z
0J
0R
1-
0&
1+
#755000
1b
1z
1J
1R
1&
#760000
0b
0z
0J
0R
0&
0+
#765000
1b
1z
1J
1R
1&
#770000
1<
b11 :"
0b
0z
0J
0R
0-
0&
1+
#775000
1b
1z
1J
1R
1&
#780000
0b
0z
0J
0R
0&
0+
#785000
1b
1z
1J
1R
1&
#790000
z3
0v
17
0<
b100 :"
0b
0z
0J
0R
0&
1+
#795000
1b
1z
1J
1R
1&
#800000
0b
0z
0J
0R
0&
0+
#805000
1b
1z
1J
1R
1&
#810000
1v
b100 7"
0b
0z
0J
0R
0&
1+
#815000
1b
1z
1J
1R
1&
#820000
0b
0z
0J
0R
0&
0+
#825000
1b
1z
1J
1R
1&
#830000
b110 7"
0b
0z
0J
0R
0&
1+
#835000
1b
1z
1J
1R
1&
#840000
0b
0z
0J
0R
0&
0+
#845000
1b
1z
1J
1R
1&
#850000
1!
18
1@
0v
b11 7"
0b
0z
0J
0R
0,
0&
1+
#855000
1b
1z
1J
1R
1&
#860000
0b
0z
0J
0R
0&
0+
#865000
1b
1z
1J
1R
1&
#870000
0!
08
03
0@
1v
07
b101 :"
b101 7"
0b
0z
0J
0R
1-
1,
0&
1+
#875000
1b
1z
1J
1R
1&
#880000
0b
0z
0J
0R
0&
0+
#885000
1b
1z
1J
1R
1&
#890000
11
b1000 :"
0b
0z
0J
0R
0&
1+
#895000
1b
1z
1J
1R
1&
#900000
0b
0z
0J
0R
0&
0+
#905000
1b
1z
1J
1R
1&
#910000
b11111111 c
b0 a
b0 k
01
b1 :"
1C
1T
b101 6"
0b
0z
0J
0R
0-
0&
1+
#915000
1q
b1 s
1b
1z
1J
1R
1&
#920000
0b
0z
0J
0R
0&
0+
#925000
1^
1`
b1 r
1~
1F
1|
1H
1b
1z
1J
1R
1&
#930000
0b
0z
0J
0R
0&
1+
#935000
b1 k
b10 r
b1 x
b1 L
b1 \
b1 i
b1 n
b1 ""
1b
1z
1J
1R
1&
#940000
0b
0z
0J
0R
0&
0+
#945000
b10 k
b11 r
b10 x
b10 L
b10 \
b10 i
b10 n
b10 ""
1b
1z
1J
1R
1&
#950000
0b
0z
0J
0R
0&
1+
#955000
b11 k
b100 r
b11 x
b11 L
b11 \
b11 i
b11 n
b11 ""
1b
1z
1J
1R
1&
#960000
0b
0z
0J
0R
0&
0+
#965000
b100 k
b101 r
b100 x
b100 L
b100 \
b100 i
b100 n
b100 ""
1b
1z
1J
1R
1&
#970000
0b
0z
0J
0R
0&
1+
#975000
b101 k
b110 r
b101 x
b101 L
b101 \
b101 i
b101 n
b101 ""
1b
1z
1J
1R
1&
#980000
0b
0z
0J
0R
0&
0+
#985000
b110 k
b111 r
b110 x
b110 L
b110 \
b110 i
b110 n
b110 ""
1b
1z
1J
1R
1&
#990000
0b
0z
0J
0R
0&
1+
#995000
b111 k
b1000 r
b111 x
b111 L
b111 \
b111 i
b111 n
b111 ""
1b
1z
1J
1R
1&
#1000000
0b
0z
0J
0R
0&
0+
#1005000
b1000 k
b1001 r
b1000 x
b1000 L
b1000 \
b1000 i
b1000 n
b1000 ""
1b
1z
1J
1R
1&
#1010000
0b
0z
0J
0R
0&
1+
#1015000
b1001 k
b1010 r
b1001 x
b1001 L
b1001 \
b1001 i
b1001 n
b1001 ""
1b
1z
1J
1R
1&
#1020000
0b
0z
0J
0R
0&
0+
#1025000
b1010 k
b1011 r
b1010 x
b1010 L
b1010 \
b1010 i
b1010 n
b1010 ""
1b
1z
1J
1R
1&
#1030000
0b
0z
0J
0R
0&
1+
#1035000
b1011 k
b1100 r
b1011 x
b1011 L
b1011 \
b1011 i
b1011 n
b1011 ""
1b
1z
1J
1R
1&
#1040000
0b
0z
0J
0R
0&
0+
#1045000
b1100 k
b1101 r
b1100 x
b1100 L
b1100 \
b1100 i
b1100 n
b1100 ""
1b
1z
1J
1R
1&
#1050000
0b
0z
0J
0R
0&
1+
#1055000
b1101 k
b1110 r
b1101 x
b1101 L
b1101 \
b1101 i
b1101 n
b1101 ""
1b
1z
1J
1R
1&
#1060000
0b
0z
0J
0R
0&
0+
#1065000
b1110 k
b1111 r
b1110 x
b1110 L
b1110 \
b1110 i
b1110 n
b1110 ""
1b
1z
1J
1R
1&
#1070000
0b
0z
0J
0R
0&
1+
#1075000
b1111 k
b10000 r
b1111 x
b1111 L
b1111 \
b1111 i
b1111 n
b1111 ""
1b
1z
1J
1R
1&
#1080000
0b
0z
0J
0R
0&
0+
#1085000
b10000 k
b10001 r
b10000 x
b10000 L
b10000 \
b10000 i
b10000 n
b10000 ""
1b
1z
1J
1R
1&
#1090000
0b
0z
0J
0R
0&
1+
#1095000
b10001 k
b10010 r
b10001 x
b10001 L
b10001 \
b10001 i
b10001 n
b10001 ""
1b
1z
1J
1R
1&
#1100000
0b
0z
0J
0R
0&
0+
#1105000
b10010 k
b10011 r
b10010 x
b10010 L
b10010 \
b10010 i
b10010 n
b10010 ""
1b
1z
1J
1R
1&
#1110000
0b
0z
0J
0R
0&
1+
#1115000
b10011 k
b10100 r
b10011 x
b10011 L
b10011 \
b10011 i
b10011 n
b10011 ""
1b
1z
1J
1R
1&
#1120000
0b
0z
0J
0R
0&
0+
#1125000
b10100 k
b10101 r
b10100 x
b10100 L
b10100 \
b10100 i
b10100 n
b10100 ""
1b
1z
1J
1R
1&
#1130000
0b
0z
0J
0R
0&
1+
#1135000
b10101 k
b10110 r
b10101 x
b10101 L
b10101 \
b10101 i
b10101 n
b10101 ""
1b
1z
1J
1R
1&
#1140000
0b
0z
0J
0R
0&
0+
#1145000
b10110 k
b10111 r
b10110 x
b10110 L
b10110 \
b10110 i
b10110 n
b10110 ""
1b
1z
1J
1R
1&
#1150000
0b
0z
0J
0R
0&
1+
#1155000
b10111 k
b11000 r
b10111 x
b10111 L
b10111 \
b10111 i
b10111 n
b10111 ""
1b
1z
1J
1R
1&
#1160000
0b
0z
0J
0R
0&
0+
#1165000
b11000 k
b11001 r
b11000 x
b11000 L
b11000 \
b11000 i
b11000 n
b11000 ""
1b
1z
1J
1R
1&
#1170000
0b
0z
0J
0R
0&
1+
#1175000
b11001 k
b11010 r
b11001 x
b11001 L
b11001 \
b11001 i
b11001 n
b11001 ""
1b
1z
1J
1R
1&
#1180000
0b
0z
0J
0R
0&
0+
#1185000
b11010 k
b11011 r
b11010 x
b11010 L
b11010 \
b11010 i
b11010 n
b11010 ""
1b
1z
1J
1R
1&
#1190000
0b
0z
0J
0R
0&
1+
#1195000
b11011 k
b11100 r
b11011 x
b11011 L
b11011 \
b11011 i
b11011 n
b11011 ""
1b
1z
1J
1R
1&
#1200000
0b
0z
0J
0R
0&
0+
#1205000
b11100 k
b11101 r
b11100 x
b11100 L
b11100 \
b11100 i
b11100 n
b11100 ""
1b
1z
1J
1R
1&
#1210000
0b
0z
0J
0R
0&
1+
#1215000
b11101 k
b11110 r
b11101 x
b11101 L
b11101 \
b11101 i
b11101 n
b11101 ""
1b
1z
1J
1R
1&
#1220000
0b
0z
0J
0R
0&
0+
#1225000
b11110 k
b11111 r
b11110 x
b11110 L
b11110 \
b11110 i
b11110 n
b11110 ""
1b
1z
1J
1R
1&
#1230000
0b
0z
0J
0R
0&
1+
#1235000
b11111 k
b100000 r
b11111 x
b11111 L
b11111 \
b11111 i
b11111 n
b11111 ""
1b
1z
1J
1R
1&
#1240000
0b
0z
0J
0R
0&
0+
#1245000
b100000 k
b100001 r
b100000 x
b100000 L
b100000 \
b100000 i
b100000 n
b100000 ""
1b
1z
1J
1R
1&
#1250000
0b
0z
0J
0R
0&
1+
#1255000
b100001 k
b100010 r
b100001 x
b100001 L
b100001 \
b100001 i
b100001 n
b100001 ""
1b
1z
1J
1R
1&
#1260000
0b
0z
0J
0R
0&
0+
#1265000
b100010 k
b100011 r
b100010 x
b100010 L
b100010 \
b100010 i
b100010 n
b100010 ""
1b
1z
1J
1R
1&
#1270000
0b
0z
0J
0R
0&
1+
#1275000
b100011 k
b100100 r
b100011 x
b100011 L
b100011 \
b100011 i
b100011 n
b100011 ""
1b
1z
1J
1R
1&
#1280000
0b
0z
0J
0R
0&
0+
#1285000
b100100 k
b100101 r
b100100 x
b100100 L
b100100 \
b100100 i
b100100 n
b100100 ""
1b
1z
1J
1R
1&
#1290000
0b
0z
0J
0R
0&
1+
#1295000
b100101 k
b100110 r
b100101 x
b100101 L
b100101 \
b100101 i
b100101 n
b100101 ""
1b
1z
1J
1R
1&
#1300000
0b
0z
0J
0R
0&
0+
#1305000
b100110 k
b100111 r
b100110 x
b100110 L
b100110 \
b100110 i
b100110 n
b100110 ""
1b
1z
1J
1R
1&
#1310000
0b
0z
0J
0R
0&
1+
#1315000
b100111 k
b101000 r
b100111 x
b100111 L
b100111 \
b100111 i
b100111 n
b100111 ""
1b
1z
1J
1R
1&
#1320000
0b
0z
0J
0R
0&
0+
#1325000
b101000 k
b101001 r
b101000 x
b101000 L
b101000 \
b101000 i
b101000 n
b101000 ""
1b
1z
1J
1R
1&
#1330000
0b
0z
0J
0R
0&
1+
#1335000
b101001 k
b101010 r
b101001 x
b101001 L
b101001 \
b101001 i
b101001 n
b101001 ""
1b
1z
1J
1R
1&
#1340000
0b
0z
0J
0R
0&
0+
#1345000
b101010 k
b101011 r
b101010 x
b101010 L
b101010 \
b101010 i
b101010 n
b101010 ""
1b
1z
1J
1R
1&
#1350000
0b
0z
0J
0R
0&
1+
#1355000
b101011 k
b101100 r
b101011 x
b101011 L
b101011 \
b101011 i
b101011 n
b101011 ""
1b
1z
1J
1R
1&
#1360000
0b
0z
0J
0R
0&
0+
#1365000
b101100 k
b101101 r
b101100 x
b101100 L
b101100 \
b101100 i
b101100 n
b101100 ""
1b
1z
1J
1R
1&
#1370000
0b
0z
0J
0R
0&
1+
#1375000
b101101 k
b101110 r
b101101 x
b101101 L
b101101 \
b101101 i
b101101 n
b101101 ""
1b
1z
1J
1R
1&
#1380000
0b
0z
0J
0R
0&
0+
#1385000
b101110 k
b101111 r
b101110 x
b101110 L
b101110 \
b101110 i
b101110 n
b101110 ""
1b
1z
1J
1R
1&
#1390000
0b
0z
0J
0R
0&
1+
#1395000
b101111 k
b110000 r
b101111 x
b101111 L
b101111 \
b101111 i
b101111 n
b101111 ""
1b
1z
1J
1R
1&
#1400000
0b
0z
0J
0R
0&
0+
#1405000
b110000 k
b110001 r
b110000 x
b110000 L
b110000 \
b110000 i
b110000 n
b110000 ""
1b
1z
1J
1R
1&
#1410000
0b
0z
0J
0R
0&
1+
#1415000
b110001 k
b110010 r
b110001 x
b110001 L
b110001 \
b110001 i
b110001 n
b110001 ""
1b
1z
1J
1R
1&
#1420000
0b
0z
0J
0R
0&
0+
#1425000
b110010 k
b110011 r
b110010 x
b110010 L
b110010 \
b110010 i
b110010 n
b110010 ""
1b
1z
1J
1R
1&
#1430000
0b
0z
0J
0R
0&
1+
#1435000
b110011 k
b110100 r
b110011 x
b110011 L
b110011 \
b110011 i
b110011 n
b110011 ""
1b
1z
1J
1R
1&
#1440000
0b
0z
0J
0R
0&
0+
#1445000
b110100 k
b110101 r
b110100 x
b110100 L
b110100 \
b110100 i
b110100 n
b110100 ""
1b
1z
1J
1R
1&
#1450000
0b
0z
0J
0R
0&
1+
#1455000
b110101 k
b110110 r
b110101 x
b110101 L
b110101 \
b110101 i
b110101 n
b110101 ""
1b
1z
1J
1R
1&
#1460000
0b
0z
0J
0R
0&
0+
#1465000
b110110 k
b110111 r
b110110 x
b110110 L
b110110 \
b110110 i
b110110 n
b110110 ""
1b
1z
1J
1R
1&
#1470000
0b
0z
0J
0R
0&
1+
#1475000
b110111 k
b111000 r
b110111 x
b110111 L
b110111 \
b110111 i
b110111 n
b110111 ""
1b
1z
1J
1R
1&
#1480000
0b
0z
0J
0R
0&
0+
#1485000
b111000 k
b111001 r
b111000 x
b111000 L
b111000 \
b111000 i
b111000 n
b111000 ""
1b
1z
1J
1R
1&
#1490000
0b
0z
0J
0R
0&
1+
#1495000
b111001 k
b111010 r
b111001 x
b111001 L
b111001 \
b111001 i
b111001 n
b111001 ""
1b
1z
1J
1R
1&
#1500000
0b
0z
0J
0R
0&
0+
#1505000
b111010 k
b111011 r
b111010 x
b111010 L
b111010 \
b111010 i
b111010 n
b111010 ""
1b
1z
1J
1R
1&
#1510000
0b
0z
0J
0R
0&
1+
#1515000
b111011 k
b111100 r
b111011 x
b111011 L
b111011 \
b111011 i
b111011 n
b111011 ""
1b
1z
1J
1R
1&
#1520000
0b
0z
0J
0R
0&
0+
#1525000
b111100 k
b111101 r
b111100 x
b111100 L
b111100 \
b111100 i
b111100 n
b111100 ""
1b
1z
1J
1R
1&
#1530000
0b
0z
0J
0R
0&
1+
#1535000
b111101 k
b111110 r
b111101 x
b111101 L
b111101 \
b111101 i
b111101 n
b111101 ""
1b
1z
1J
1R
1&
#1540000
0b
0z
0J
0R
0&
0+
#1545000
b111110 k
b111111 r
b111110 x
b111110 L
b111110 \
b111110 i
b111110 n
b111110 ""
1b
1z
1J
1R
1&
#1550000
0b
0z
0J
0R
0&
1+
